…
#> Searching for duplicate trials... 
#> - Getting all trial identifiers...
#> , 31 found in collection
#> - Finding duplicates among registers' and sponsor ids...
#> - 2 EUCTR _id were not preferred EU Member State record for 11 trials
#> - Unique are 8 / 5 / 5 / 3 / 8 records from CTGOV / CTGOV2 / CTIS / EUCTR / ISRCTN
#> = Returning keys (_id) of 29 records in collection "my_trials"

# using base R
df[df[[".isUniqueTrial"]], ]
#> # A tibble: 29 × 3
#>    `_id`             keyword .isUniqueTrial
#>    <chr>             <chr>   <lgl>         
#>  1 12949496          NA      TRUE          
#>  2 13281214          NA      TRUE          
#>  3 17473621          NA      TRUE          
#>  4 2012-003632-23-SE NA      TRUE          
#>  5 2014-002606-20-PT NA      TRUE          
#>  6 2014-003556-31-SE NA      TRUE          
#>  7 2022-500244-37-00 NA      TRUE          
#>  8 2022-501142-30-00 NA      TRUE          
#>  9 2023-505613-24-00 NA      TRUE          
#> 10 2023-508143-51-01 NA      TRUE          
#> # ℹ 19 more rows
…
