…
    df = dflong,
    valuename = paste0(
        "clinical_results.*measurement.value|",
        "clinical_results.*outcome.measure.units|",
        "endPoints.endPoint.*tendencyValue.value|",
        "endPoints.endPoint.unit"
    ),
    wherename = paste0(
        "clinical_results.*outcome.measure.title|",
        "endPoints.endPoint.title"
    ),
    wherevalue = "response"
)
#> Returning values for 1 out of 6 trials
#> # A tibble: 63 × 5
#>    `_id`       identifier name                                       value where
#>    <chr>       <chr>      <chr>                                      <chr> <chr>
#>  1 NCT03548584 7.1.1      clinical_results.outcome_list.outcome.mea… 11.3  CMAI…
#>  2 NCT03548584 7.1.2      clinical_results.outcome_list.outcome.mea… 13.2  CMAI…
#>  3 NCT03548584 7.2.1      clinical_results.outcome_list.outcome.mea… 29.3  CMAI…
#>  4 NCT03548584 7.2.2      clinical_results.outcome_list.outcome.mea… 27.6  CMAI…
#>  5 NCT03548584 7.3.1      clinical_results.outcome_list.outcome.mea… 43.1  CMAI…
#>  6 NCT03548584 7.3.2      clinical_results.outcome_list.outcome.mea… 37.9  CMAI…
#>  7 NCT03548584 7.4.1      clinical_results.outcome_list.outcome.mea… 59.6  CMAI…
#>  8 NCT03548584 7.4.2      clinical_results.outcome_list.outcome.mea… 38.8  CMAI…
#>  9 NCT03548584 7.5.1      clinical_results.outcome_list.outcome.mea… 65.8  CMAI…
#> 10 NCT03548584 7.5.2      clinical_results.outcome_list.outcome.mea… 45.7  CMAI…
#> # ℹ 53 more rows
```
