Get value for variable of interest — dfName2Value • ctrdata
…
    df = dflong,
    valuename = paste0(
        "clinical_results.*measurement.value|",
        "clinical_results.*outcome.measure.units|",
        "endPoints.endPoint.*tendencyValue.value|",
        "endPoints.endPoint.unit"
    ),
    wherename = paste0(
        "clinical_results.*outcome.measure.title|",
        "endPoints.endPoint.title"
    ),
    wherevalue = "response"
)
#> Returning values for 7 out of 46 trials
#> # A tibble: 77 × 5
#>    `_id`             identifier name                                                                 value where
#>    <chr>             <chr>      <chr>                                                                <chr> <chr>
#>  1 2012-003632-23-AT 1          endPoints.endPoint.unit                                              Days  Time…
#>  2 2012-003632-23-AT 1          endPoints.endPoint.subjectAnalysisSetReportingGroups.subjectAnalysi… 7.0   Time…
#>  3 2012-003632-23-AT 2          endPoints.endPoint.unit                                              At l… Dura…
#>  4 2012-003632-23-AT 6          endPoints.endPoint.unit                                              Over… Over…
#>  5 2012-003632-23-AT 6.1        endPoints.endPoint.subjectAnalysisSetReportingGroups.subjectAnalysi… 0.63  Over…
#>  6 2012-003632-23-AT 6.2        endPoints.endPoint.subjectAnalysisSetReportingGroups.subjectAnalysi… 0     Over…
#>  7 2012-003632-23-AT 6.3        endPoints.endPoint.subjectAnalysisSetReportingGroups.subjectAnalysi… 0.65  Over…
#>  8 2012-003632-23-AT 6.4        endPoints.endPoint.subjectAnalysisSetReportingGroups.subjectAnalysi… 0.59  Over…
#>  9 2012-003632-23-AT 6.5        endPoints.endPoint.subjectAnalysisSetReportingGroups.subjectAnalysi… 0.60  Over…
#> 10 2012-003632-23-AT 8          endPoints.endPoint.unit                                              Perc… Cumu…
#> # ℹ 67 more rows
…
