…
#> clinical_results.participant_flow.recruitment_details                                                                                                                                                   

#> clinical_results.participant_flow.group_list.group                                                                                                                                                      

#> clinical_results.participant_flow.period_list.period                                                                                                                                                    

#>                                                                                                                                                                                                         

#> . 
#> . 
#> 
#> Total 442 rows, 13 unique names of variables
#> # A tibble: 442 × 4
#>    `_id`       identifier name                         value                    
#>    <chr>       <chr>      <chr>                        <chr>                    
#>  1 NCT03325556 1          clinical_results.participan… Pimavanserin 34 mg once …
#>  2 NCT03325556 2          clinical_results.participan… Pimavanserin 34 mg once …
#>  3 NCT03325556 3          clinical_results.participan… Placebo once daily for 2…
#>  4 NCT03325556 1          clinical_results.participan… P1                       
#>  5 NCT03325556 2          clinical_results.participan… P2                       
#>  6 NCT03325556 3          clinical_results.participan… P3                       
#>  7 NCT03325556 1          clinical_results.participan… Pimavanserin Open-Label …
#>  8 NCT03325556 2          clinical_results.participan… Pimavanserin Double-Blin…
#>  9 NCT03325556 3          clinical_results.participan… Placebo Double-Blind Per…
#> 10 NCT03325556 1.1.1      clinical_results.participan… 70                       
#> # ℹ 432 more rows
```
