Convert data frame with trial records into long format — dfTrials2Long • ctrdata
…
dfTrials2Long(df = dfwide)
#> clinical_results.participant_flow.group_list.group                                                                                                                                                      
#> clinical_results.participant_flow.period_list.period.title                                                                                                                                              
#> clinical_results.participant_flow.period_list.period.milestone_list.milestone                                                                                                                           
#>                                                                                                                                                                                                         
#> . 
#> . 
#> . 
#> . 
#> . 
#> . 
#> . 
#> 
#> Total 22 rows, 7 unique names of variables
#> # A tibble: 22 × 4
#>    `_id`       identifier name                                             value
#>    <chr>       <chr>      <chr>                                            <chr>
#>  1 NCT02620761 1          clinical_results.participant_flow.group_list.gr… "P1" 
#>  2 NCT02620761 2          clinical_results.participant_flow.group_list.gr… "P2" 
#>  3 NCT02620761 1          clinical_results.participant_flow.group_list.gr… "Con…
#>  4 NCT02620761 2          clinical_results.participant_flow.group_list.gr… "Fen…
#>  5 NCT02620761 1          clinical_results.participant_flow.group_list.gr… "Inf…
#>  6 NCT02620761 2          clinical_results.participant_flow.group_list.gr… "Inf…
#>  7 NCT02620761 0          clinical_results.participant_flow.period_list.p… "Ove…
#>  8 NCT02620761 1          clinical_results.participant_flow.period_list.p… "STA…
#>  9 NCT02620761 2          clinical_results.participant_flow.period_list.p… "COM…
#> 10 NCT02620761 3          clinical_results.participant_flow.period_list.p… "NOT…
#> # ℹ 12 more rows
…
