…
# apply trial concept when creating data frame
dbc <- nodbi::src_sqlite(
  dbname = system.file("extdata", "demo.sqlite", package = "ctrdata"),
  collection = "my_trials", flags = RSQLite::SQLITE_RO)
trialsDf <- dbGetFieldsIntoDf(
  field = "ctrname",
  calculate = "f.controlType",
  con = dbc)
#> To review trial concepts details, call 'help("ctrdata-trial-concepts")'
#> Querying database (14 fields)...
#> Calculating f.controlType...                            

trialsDf
#> # A tibble: 24 × 3
#>    `_id`             ctrname .controlType
#>    <chr>             <chr>   <fct>       
#>  1 12949496          ISRCTN  none        
#>  2 13281214          ISRCTN  none        
#>  3 17473621          ISRCTN  other       
#>  4 2016-004489-24-DE EUCTR   active      
#>  5 2019-002663-10-ES EUCTR   active      
#>  6 2022-000099-20-DE EUCTR   active      
#>  7 2022-500244-37-00 CTIS    placebo     
#>  8 2023-505613-24-00 CTIS    active      
#>  9 2023-508143-51-01 CTIS    active      
#> 10 2024-510663-34-00 CTIS    active      
#> # ℹ 14 more rows
```
