…
# apply trial concept when creating data frame
dbc <- nodbi::src_sqlite(
  dbname = system.file("extdata", "demo.sqlite", package = "ctrdata"),
  collection = "my_trials", flags = RSQLite::SQLITE_RO)
trialsDf <- dbGetFieldsIntoDf(
  calculate = "f.hasResults",
  con = dbc)
#> To review trial concepts details, call 'help("ctrdata-trial-concepts")'
#> Querying database (12 fields)...
#> Calculating f.hasResults...                            

trialsDf
#> # A tibble: 21 × 2
#>    `_id`             .hasResults
#>    <chr>             <lgl>      
#>  1 12949496          TRUE       
#>  2 13281214          TRUE       
#>  3 17473621          FALSE      
#>  4 2012-003632-23-CZ TRUE       
#>  5 2012-003632-23-SE TRUE       
#>  6 2014-003556-31-GB TRUE       
#>  7 2014-003556-31-SE TRUE       
#>  8 2022-501142-30-00 FALSE      
#>  9 2023-505613-24-00 FALSE      
#> 10 2024-510663-34-00 FALSE      
#> # ℹ 11 more rows
```
