…
# apply trial concept when creating data frame
dbc <- nodbi::src_sqlite(
  dbname = system.file("extdata", "demo.sqlite", package = "ctrdata"),
  collection = "my_trials", flags = RSQLite::SQLITE_RO)
trialsDf <- dbGetFieldsIntoDf(
  calculate = "f.likelyPlatformTrial",
  con = dbc)
#> To review trial concepts details, call 'help("ctrdata-trial-concepts")'
#> Querying database (25 fields)...
#> Calculating f.likelyPlatformTrial...                            
#> Searching for duplicate trials... 
#> - Getting all trial identifiers...
#> , 31 found in collection
trialsDf
#> # A tibble: 31 × 4
#>    `_id`           .likelyPlatformTrial .likelyRelatedTrials .maybeRelatedTrials
#>    <chr>           <lgl>                <list>               <list>             
#>  1 12949496        FALSE                <chr [1]>            <chr [1]>          
#>  2 13281214        FALSE                <chr [1]>            <chr [1]>          
#>  3 17473621        FALSE                <lgl [1]>            <chr [1]>          
#>  4 2012-003632-23… FALSE                <chr [2]>            <chr [1]>          
#>  5 2012-003632-23… FALSE                <chr [2]>            <chr [1]>          
#>  6 2014-002606-20… FALSE                <chr [1]>            <chr [1]>          
#>  7 2014-003556-31… FALSE                <chr [2]>            <chr [1]>          
#>  8 2014-003556-31… FALSE                <chr [2]>            <chr [1]>          
#>  9 2022-500244-37… FALSE                <chr [1]>            <chr [1]>          
#> 10 2022-501142-30… FALSE                <lgl [1]>            <chr [1]>          
#> # ℹ 21 more rows
```
