Calculate number of arms or groups with investigational medicines in a study — f.numTestArmsSubstances • ctrdata
…
# apply trial concept when creating data frame
dbc <- nodbi::src_sqlite(
  dbname = system.file("extdata", "demo.sqlite", package = "ctrdata"),
  collection = "my_trials", flags = RSQLite::SQLITE_RO)
trialsDf <- dbGetFieldsIntoDf(
  calculate = "f.numTestArmsSubstances",
  con = dbc)
#> To review trial concepts details, call 'help("ctrdata-trial-concepts")'
#> Querying database (11 fields)...
#> Calculating f.numTestArmsSubstances...                            
trialsDf
#> # A tibble: 31 × 2
#>    `_id`             .numTestArmsSubstances
#>    <chr>                              <int>
#>  1 12949496                               1
#>  2 13281214                               1
#>  3 17473621                              NA
#>  4 2012-003632-23-CZ                      1
#>  5 2012-003632-23-SE                      1
#>  6 2014-002606-20-PT                      2
#>  7 2014-003556-31-GB                      1
#>  8 2014-003556-31-SE                      1
#>  9 2022-500244-37-00                      1
#> 10 2022-501142-30-00                      1
#> # ℹ 21 more rows
…
