…
# apply trial concept when creating data frame
dbc <- nodbi::src_sqlite(
  dbname = system.file("extdata", "demo.sqlite", package = "ctrdata"),
  collection = "my_trials", flags = RSQLite::SQLITE_RO)
trialsDf <- dbGetFieldsIntoDf(
  calculate = "f.numSites",
  con = dbc)
#> To review trial concepts details, call 'help("ctrdata-trial-concepts")'
#> Querying database (10 fields)...
#> Calculating f.numSites...                            

trialsDf
#> # A tibble: 30 × 2
#>    `_id`             .numSites
#>    <chr>                 <int>
#>  1 12949496                  2
#>  2 13281214                  1
#>  3 17473621                  1
#>  4 2012-003632-23-CZ        18
#>  5 2012-003632-23-SE        17
#>  6 2014-002606-20-PT        19
#>  7 2014-003556-31-GB        16
#>  8 2014-003556-31-SE        16
#>  9 2022-500244-37-00         2
#> 10 2022-501142-30-00         5
#> # ℹ 20 more rows
```
