…
# apply trial concept when creating data frame
dbc <- nodbi::src_sqlite(
  dbname = system.file("extdata", "demo.sqlite", package = "ctrdata"),
  collection = "my_trials", flags = RSQLite::SQLITE_RO)
trialsDf <- dbGetFieldsIntoDf(
  calculate = "f.primaryEndpointDescription",
  con = dbc)
#> To review trial concepts details, call 'help("ctrdata-trial-concepts")'
#> Querying database (11 fields)...
#> , typing fields...
#> Calculating f.primaryEndpointDescription...                            

trialsDf
#> # A tibble: 24 × 2
#>    `_id`             .primaryEndpointDescription
#>    <chr>             <list>                     
#>  1 12949496          <chr [1]>                  
#>  2 13281214          <chr [1]>                  
#>  3 17473621          <chr [1]>                  
#>  4 2016-004489-24-DE <chr [1]>                  
#>  5 2019-002663-10-ES <chr [1]>                  
#>  6 2022-000099-20-DE <chr [1]>                  
#>  7 2022-500244-37-00 <chr [1]>                  
#>  8 2023-505613-24-00 <chr [14]>                 
#>  9 2023-508143-51-01 <chr [1]>                  
#> 10 2024-510663-34-00 <chr [4]>                  
#> # ℹ 14 more rows
```
