Calculate sample size of a study — f.sampleSize • ctrdata
…
# apply trial concept when creating data frame
dbc <- nodbi::src_sqlite(
  dbname = system.file("extdata", "demo.sqlite", package = "ctrdata"),
  collection = "my_trials", flags = RSQLite::SQLITE_RO)
trialsDf <- dbGetFieldsIntoDf(
  calculate = "f.sampleSize",
  con = dbc)
#> To review trial concepts details, call 'help("ctrdata-trial-concepts")'
#> Querying database (18 fields)...
#> Calculating f.sampleSize...                            
trialsDf
#> # A tibble: 31 × 2
#>    `_id`             .sampleSize
#>    <chr>                   <int>
#>  1 12949496                    9
#>  2 13281214                   60
#>  3 17473621                  100
#>  4 2012-003632-23-CZ          45
#>  5 2012-003632-23-SE          45
#>  6 2014-002606-20-PT         300
#>  7 2014-003556-31-GB          76
#>  8 2014-003556-31-SE          76
#>  9 2022-500244-37-00         440
#> 10 2022-501142-30-00         520
#> # ℹ 21 more rows
…
