…
# apply trial concept when creating data frame
dbc <- nodbi::src_sqlite(
  dbname = system.file("extdata", "demo.sqlite", package = "ctrdata"),
  collection = "my_trials", flags = RSQLite::SQLITE_RO)
trialsDf <- dbGetFieldsIntoDf(
  calculate = "f.sponsorType",
  con = dbc)
#> To review trial concepts details, call 'help("ctrdata-trial-concepts")'
#> Querying database (13 fields)...
#> Calculating f.sponsorType...                            

trialsDf
#> # A tibble: 22 × 2
#>    `_id`             .sponsorType  
#>    <chr>             <fct>         
#>  1 12949496          other         
#>  2 13281214          other         
#>  3 17473621          other         
#>  4 2016-003884-20-DE for profit    
#>  5 2019-000338-20-ES for profit    
#>  6 2019-002663-10-ES for profit    
#>  7 2022-500244-37-00 mixed         
#>  8 2023-505613-24-00 for profit    
#>  9 2023-508143-51-01 not for profit
#> 10 2024-510663-34-00 for profit    
#> # ℹ 12 more rows
```
