…
# apply trial concept when creating data frame
dbc <- nodbi::src_sqlite(
  dbname = system.file("extdata", "demo.sqlite", package = "ctrdata"),
  collection = "my_trials", flags = RSQLite::SQLITE_RO)
trialsDf <- dbGetFieldsIntoDf(
  calculate = "f.trialPopulation",
  con = dbc)
#> To review trial concepts details, call 'help("ctrdata-trial-concepts")'
#> Querying database (26 fields)...
#> Typing fields...
#> Calculating f.trialPopulation...                            

trialsDf
#> # A tibble: 24 × 4
#>    `_id`             .trialPopulationAgeGroup .trialPopulationInclusion         
#>    <chr>             <fct>                    <chr>                             
#>  1 12949496          P                        "All infants with a gestation ≥ 3…
#>  2 13281214          P                        "All infants aged less than 29 we…
#>  3 17473621          P                        "1. Infants with gestational age …
#>  4 2016-004489-24-DE P                        "Inclusion Criteria: A subject mu…
#>  5 2019-002663-10-ES P+A                      "Part A, B and C: - Genetic docum…
#>  6 2022-000099-20-DE P                        "- Born at  29 weeks gestational …
#>  7 2022-500244-37-00 A+E                      "Diagnosis of symptomatic COVID-1…
#>  8 2023-505613-24-00 P                        "Panel A: Is undergoing treatment…
#>  9 2023-508143-51-01 A+E                      "In order to be eligible to parti…
#> 10 2024-510663-34-00 P                        "Age. Neonates and infants who ar…
#> # ℹ 14 more rows
#> # ℹ 1 more variable: .trialPopulationExclusion <chr>
```
