…
# apply trial concept when creating data frame
dbc <- nodbi::src_sqlite(
  dbname = system.file("extdata", "demo.sqlite", package = "ctrdata"),
  collection = "my_trials", flags = RSQLite::SQLITE_RO)
trialsDf <- dbGetFieldsIntoDf(
  calculate = "f.trialObjectives",
  con = dbc)
#> To review trial concepts details, call 'help("ctrdata-trial-concepts")'
#> Querying database (27 fields)...
#> Calculating f.trialObjectives...                            

trialsDf
#> # A tibble: 22 × 2
#>    `_id`             .trialObjectives
#>    <chr>             <chr>           
#>  1 12949496          S PD A          
#>  2 13281214          E PD A          
#>  3 17473621          NA              
#>  4 2016-003884-20-DE E S PK          
#>  5 2019-000338-20-ES E S PK          
#>  6 2019-002663-10-ES E S PK A        
#>  7 2022-500244-37-00 E S A           
#>  8 2023-505613-24-00 S PK A          
#>  9 2023-508143-51-01 S PD            
#> 10 2024-510663-34-00 S PK            
#> # ℹ 12 more rows
```
