Calculate in- and exclusion criteria and age groups — f.trialPopulation • ctrdata
…
# apply trial concept when creating data frame
dbc <- nodbi::src_sqlite(
  dbname = system.file("extdata", "demo.sqlite", package = "ctrdata"),
  collection = "my_trials", flags = RSQLite::SQLITE_RO)
trialsDf <- dbGetFieldsIntoDf(
  calculate = "f.trialPopulation",
  con = dbc)
#> To review trial concepts details, call 'help("ctrdata-trial-concepts")'
#> Querying database (26 fields)...
#> Calculating f.trialPopulation...                            
trialsDf
#> # A tibble: 31 × 4
#>    `_id`    .trialPopulationAgeG…¹ .trialPopulationIncl…² .trialPopulationExcl…³
#>    <chr>    <fct>                  <chr>                  <chr>                 
#>  1 12949496 P                      All infants with a ge… 1. Lethal congenital …
#>  2 13281214 P                      All infants aged less… 1. Lack of consent or…
#>  3 17473621 P                      1. Infants with gesta… 1. Genetic, metabolic…
#>  4 2012-00… P+A                    1. Primary HLH patien… 1. Diagnosis of secon…
#>  5 2012-00… P+A                    1. Primary HLH patien… 1. Diagnosis of secon…
#>  6 2014-00… P                      1. Children 3 months … 1. Anticoagulant trea…
#>  7 2014-00… P                      Each subject must mee… Subjects who meet any…
#>  8 2014-00… P                      Each subject must mee… Subjects who meet any…
#>  9 2022-50… A+E                    Diagnosis of symptoma… Patients with an indi…
#> 10 2022-50… A                      Age > 18 years old / … Unable to understand …
#> # ℹ 21 more rows
#> # ℹ abbreviated names: ¹​.trialPopulationAgeGroup, ²​.trialPopulationInclusion,
#> #   ³​.trialPopulationExclusion
…
